ppl/6/8/f35ece3e6abdc44d7ddbea9686.html|Залетаев|Роман Алексеевич /Залетаев/|8 DEC 2015||||
ppl/d/d/f35ece3e6d525f4efeef4f062dd.html|Буркин|Алексей /Буркин/|1985||||
ppl/6/f/f35ece3e6e5151286c1b3c253f6.html|Гуреева|Марина Юрьевна /Гуреева/|17 DEC 1992|Москва|||
ppl/4/3/f35ece3e7015bdcce312bc0f734.html||Марина //|||||
ppl/d/a/f35ece3e70844b9a663d195cfad.html||Юрий //|||||
ppl/0/0/f35ece3e70e4816bcd27350e800.html|Шитьков|Юрий Михайлович /Шитьков/|13 MAR 1968||13 NOV 2017||
ppl/f/b/f35ece3e897696b85713ea8bbf.html|Шитькова|Марина Мясумовна /Шитькова/|6 JUL 1968|Москва|||
ppl/e/5/f35ece3e8b71ccaa6e93d17c55e.html|Шитькова|Ирина Юрьевна /Шитькова/|26 OCT 2004||||
ppl/9/b/f35ece3e8c87eaf458e8e5514b9.html|Севбянов|Мясум Мустафович /Севбянов/|3 DEC 1936||4 NOV 2019||
ppl/6/3/f35ece3e8d475d01c179e1c0e36.html|Гуреева|Аири Сергеевна /Гуреева/|16 FEB 2021|Helsinki|||
ppl/d/7/f35ece3e9cf1c8746bb15bd8c7d.html|Горюнова|Зоя Ивановна /Горюнова/|||||
ppl/7/1/f35ece3e9e03c33aceb13b52117.html|Черепенин|Николай Сергеевич /Черепенин/|19 JAN 1975||30 JAN 2022||
ppl/d/5/f35ece3ea0a542d5ee9e0bc295d.html|Гуреев|Николай Дмитриевич /Гуреев/|22 JUL 1940|Ильинка, Ильинское сельское поселение, Скопинский район, Рязанская область|16 JUN 2018||
ppl/c/1/f35ece3eb0c3e1ab35d8302731c.html||Иван //|||||
ppl/d/7/f35ece3eb1751ab528082dd9b7d.html|Залетаев|Николай Сергеевич /Залетаев/|31 MAR 1941|Красногорск, Московская область|||
ppl/9/c/f35ece3ec1b66fd622b180d8ec9.html|Денисова|Александра Сергеевна /Денисова/|||||
ppl/a/8/f35ece3ec2b40a36488a92bd08a.html|Гуреева|Анастасия Николаевна /Гуреева/|22 JUN 2003|Красногорск, Московская область|||
ppl/b/e/f35ece3ed23414dd4e8892579eb.html|Гуреев|Сергей Николаевич /Гуреев/|10 JAN 1991|Красногорск, Московская область|||
ppl/9/d/f35ece3ed4743a4018a3f0aaed9.html|Горюнова|Татьяна ? /Горюнова/|||||
ppl/b/a/f35ece3ed513a2267d8f0b00bab.html|Гуреева|Наталья Николаевна /Гуреева/|30 APR 1971|Красногорск, Московская область|||
ppl/8/6/f35ece3ee4e651fba8d3f8a6668.html|Харя|Татьяна Викторовна /Харя/|23 MAY 1970|Красногорск, Московская область|||
ppl/3/e/f35ece3ee721326910ceed3bae3.html|Махрова|Татьяна Тимофеевна /Махрова/|12 NOV 1945||25 FEB 2022||
ppl/1/c/f35ece3ef716f731fa987742ac1.html|Кусакина|Лидия Тимофеевна /Кусакина/|12 OCT 1940||19 MAY 2017||
ppl/b/2/f35ece3ef9574f7f20ce4d0372b.html|Залетаев|Сергей Иванович /Залетаев/|21 AUG 1910||15 JUL 1980||
ppl/d/2/f35ece3efb8a65d7ffa167172d.html|Гребенникова|Евгения Тимофеевна /Гребенникова/|1 NOV 1937||21 AUG 2017||
ppl/9/3/f35ece3f0a55c59307d6c5c7a39.html|Ермаков|Николай Тимофеевич /Ермаков/|14 MAY 1949||28 JUN 2017||
ppl/a/9/f35ece3f0c815d8c0a4e136e79a.html|Ермаков|Тимофей Васильевич /Ермаков/|ABT 20 FEB 1902||1986||
ppl/d/b/f35ece3f0e74e08d0f607dacbbd.html|Залетаева|Антонина Ивановна /Залетаева/|19 APR 1912||31 JUL 1964||
ppl/5/c/f35ece3f10a4835ce74d07d85c5.html|Денисова|Людмила Тимофеевна /Денисова/|22 JUN 1933||23 DEC 2020||
ppl/4/e/f35ece3f2117da6a3f9380ed4e4.html|Залетаева|Нина Александровна /Залетаева/|24 JUL 1939||14 JUN 2016||
ppl/8/d/f35ece3f23528e44de89b8ac2d8.html||Сергей //|||||
ppl/9/5/f35ece3f23fb1b3f5cfe4f8659.html|Гуреева|Светлана Николаевна /Гуреева/|1 MAY 1969|Красногорск, Московская область|||
ppl/b/d/f35ece3f2633c74220dbb0d94db.html|Ермакова|Нина Федоровна /Ермакова/|4 MAY 1950||4 APR 2001||
ppl/9/3/f35ece3f27b3763d4c86edd6339.html|Сафонова|Зоя Александровна /Сафонова/|16 JUL 1911||||
ppl/b/4/f35ece3f2985401d06a9452eb4b.html|Грибушенкова|? ? /Грибушенкова/|||||
ppl/0/4/f35ece3f2a749c3ede31c614940.html|Залетаева|Ирина Алексеевна /Залетаева/|ABT 1987||||
ppl/1/8/f35ece3f43e5b2770323847ef81.html|Лаптева|Зинаида Александровна /Лаптева/|||||
ppl/c/f/f35ece3f45063ccfb744dc6befc.html|Залетаев|Александр Иванович /Залетаев/|25 AUG 1914||14 SEP 1968||
ppl/b/d/f35ece3f55564f0028feedfa0db.html|Гуреев|Николай Николаевич /Гуреев/|23 JAN 1967|Красногорск, Московская область|||
ppl/6/4/f35ece3f57ebe6bd881884546.html|Кудрявцев| /Кудрявцев/|||||
ppl/6/1/f35ece3f58e77e0d3c5b864b416.html|Гимадеева|Елена Николаевна /Гимадеева/|11 NOV 1971||||
ppl/9/3/f35ece3f5aa2ce7efaeb4760d39.html|Ермаков|Константин Николаевич /Ермаков/|4 MAY 1973||||
ppl/1/7/f35ece3f5c06aa708936ea6bb71.html|Бурдакова|Надежда Тимофеевна /Бурдакова/|14 MAY 1949||20 APR 2019||
ppl/f/9/f35ece3f70b5cf278a8f0c42c9f.html|Махрова|Светлана Ивановна /Махрова/|17 JUN 1972||||
ppl/1/b/f35ece3f71d9c01b2bb55d0ab1.html|Попкова|Валентина Владимировна /Попкова/|||||
ppl/4/1/f35ece3f731596d64dcea466a14.html|Яковлева|Валентина Тимофеевна /Яковлева/|6 DEC 1930||26 JUL 2011||
ppl/d/7/f35ece3f836142dd521b5d8187d.html|Попкова|Наталья Ивановна /Попкова/|||||
ppl/e/d/f35ece3f8484eba5919435fecde.html|Залетаев|Алексей Викторович /Залетаев/|15 FEB 1960|Красногорск, Московская область|26 JUN 2008||
ppl/f/e/f35ece3f86c733bef8968a92ef.html|Черепенин|Степан Павлович /Черепенин/|1914||||
ppl/6/f/f35ece3f8822b8992a7f219df6.html|Залетаев|Виктор Сергеевич /Залетаев/|7 JAN 1938|Красногорск, Московская область|||
ppl/7/7/f35ece3f97e14781bcf2cafe77.html|Попкова|Валентина Владимировна /Попкова/|||||
ppl/8/e/f35ece3f9895693c0e8e03b66e8.html|Гуреев|Михаил Александрович /Гуреев/|18 NOV 2001|Красногорск, Московская область|||
ppl/e/3/f35ece3f9a972d589f8a332473e.html|Ермакова|Олимпиада Ивановна /Ермакова/|24 JUL 1907|Пятница, городской округ Солнечногорск, Московская область|20 OCT 1987||
ppl/3/e/f35ece3faaa62827d8ff89718e3.html|Залетаев|Иван Васильевич /Залетаев/|1880||1926||
ppl/c/4/f35ece3fad4bb9306ad2832c4c.html|Горюнова|Алина Сергеевна /Горюнова/|||||
ppl/5/1/f35ece3fae328803183ddc07a15.html|Денисов|Михаил Николаевич /Денисов/|||||
ppl/2/1/f35ece3faf667c2cea97049d812.html|Махров|Роман Анатольевич /Махров/|16 SEP 1971||||
ppl/8/7/f35ece3fbdd8d531fd3ea06078.html|Кусакин|Игорь Александрович /Кусакин/|1 AUG 1964||||
ppl/7/5/f35ece3fbf352140e6a5d156d57.html|Говорова|Мария Николаевна /Говорова/|1914||1981||
ppl/b/a/f35ece3fc0d3c8e9c99222b82ab.html|Горюнов|Алексей Александрович /Горюнов/|||||
ppl/4/8/f35ece3fc1f58913a54560c9384.html|Фетисенко|Ирина Александровна /Фетисенко/|11 NOV 1960||||
ppl/a/f/f35ece3fc344af7898efb9b1dfa.html|Гребенникова|Елена Валентиновна /Гребенникова/|26 APR 1959|Советск, Калининградская область|DEC 2021||
ppl/7/3/f35ece3fc531e21317290d6e437.html|Залетаева|Маргарита Викторовна /Залетаева/|ABT 1963||||
ppl/f/6/f35ece3fd3a2dc329150243ed6f.html|Говорова|Елена Николаевна /Говорова/|1908||1961||
ppl/1/4/f35ece3fd54a8958011b118241.html|Залетаева|Людмила Николаевна /Залетаева/|7 JAN 1918||26 MAY 2005||
ppl/1/1/f35ece3fd792e5c5d2e40f67711.html|Кудинов|Александр /Кудинов/|||||
ppl/4/6/f35ece3fd8f28a9ee5daabf7a64.html|Говорова|Нина Николаевна /Говорова/|1906||1917||
ppl/d/1/f35ece3fda65ca60e707ea97e1d.html|Горюнов|Сергей Владимирович /Горюнов/|||||
ppl/6/f/f35ece3fe8666544e00809ccef6.html|Кусакина|Ирина Георгиевна /Кусакина/|14 JAN 1966||||
ppl/3/8/f35ece3fe996ff3854b0e124683.html|Теселкина|Екатерина Михайловна /Теселкина/|||||
ppl/a/c/f35ece3feac3059a2e8147226ca.html|Говорова|Людмила Ивановна /Говорова/|1886||1960||
ppl/2/8/f35ece3fec34bd487aafa5e6d82.html|Бурдаков|Максим Владимирович /Бурдаков/|15 SEP 1971||||
ppl/b/f/f35ece3fed41d2b092fc6febbfb.html|Денисов|Николай /Денисов/|||||
ppl/b/4/f35ece3fee26fa903df53a9b94b.html|Кусакин|Тимофей Игоревич /Кусакин/|27 MAY 1993||||
ppl/d/c/f35ece3ffc0479f1867d9133acd.html|Говорова|Лидия Николаевна /Говорова/|1912||1942||
ppl/7/6/f35ece3ffd959e4ed2d802a6067.html|Червяков|Виктор Михайлович /Червяков/|10 APR 1932||8 JUN 2009||
ppl/b/c/f35ece3fff173f50da7f39250cb.html|Гуреева|Александра Андреевна /Гуреева/|11 SEP 1941|Новоархангельское, Новоархангельский сельсовет, Первомайский район, Тамбовская область|12 SEP 2019|Красногорск, Московская область|
ppl/0/7/f35ece400134d862eb8d8d7270.html|Залетаева|Галина Алексеевна /Залетаева/|19 MAY 1937||ABT 4 JAN 1994||
ppl/8/2/f35ece400372684e8c359e4dd28.html|Гребенников|Павел Валентинович /Гребенников/|JAN 1962|Советск, Калининградская область|MAY 2008||
ppl/1/e/f35ece4005a1dbc87a1b8e6ede1.html|Залетаева|Людмила Степановна /Залетаева/|14 MAY 1946||||
ppl/f/4/f35ece4007948b1355b8508214f.html|Бурдакова|Виктория Николаевна /Бурдакова/|31 JAN 1974||||
ppl/1/d/f35ece4015c3ea7f528501900d1.html|Бурдаков|Владимир Николаевич /Бурдаков/|30 MAY 1941||11 MAY 2005||
ppl/5/d/f35ece4017c51a2391a409d3fd5.html|Чугунова|Татьяна Александровна /Чугунова/|29 OCT 1976||||
ppl/b/c/f35ece401974b17e1f8dcd359cb.html|Щербакова|Лариса Аркадьевна /Щербакова/|5 NOV 1952||||
ppl/7/1/f35ece401ab38957a11b4e69117.html|Кудинова|Галина Степановна /Кудинова/|ABT 5 OCT 1948||28 OCT 2017||
ppl/4/d/f35ece402a278a53e1e09dbcfd4.html|Махров|Анатолий Дмитрович /Махров/|29 APR 1945||30 SEP 2012||
ppl/9/3/f35ece402bc35bd5d859114de39.html|Денисов|Владимир Александрович /Денисов/|15 APR 1929||1968||
ppl/a/4/f35ece402d0763de6f9db2f474a.html|Яковлев|Аркадий Николаевич /Яковлев/|6 MAR 1918||18 DEC 1991||
ppl/4/4/f35ece402ea165723d81082aa44.html|Денисова|Клавдия Михайловна /Денисова/|||||
ppl/f/3/f35ece402fca539aa914b6fa3f.html|Терехов|Василий Егорович /Терехов/|19 AUG 1914||10 JUL 2006||
ppl/5/c/f35ece403e57ce3388c850eddc5.html|Махрова|Екатерина Романовна /Махрова/|7 FEB 1995||||
ppl/1/0/f35ece403f97ca6bed69ecce401.html|Терехов|Николай Васильевич /Терехов/|25 MAY 1960|Гринёвка, Россошенское сельское поселение, Краснозоренский район, Орловская область|||
ppl/3/4/f35ece404175a2a70b9c7877443.html|Терехова|Елена Викторовна /Терехова/|14 NOV 1958||||
ppl/a/f/f35ece4043c373463737be247fa.html|Говоров|Николай Михайлович /Говоров/|1879||1918||
ppl/d/f/f35ece4045554177cf7dffe5bfd.html|Бобкова|Дарья Николаевна /Бобкова/|||||
ppl/a/8/f35ece404678ea3caf24a9aa8a.html|Гребенников|Валентин Матвеевич /Гребенников/|1936||||
ppl/b/2/f35ece4054663d28eae0edfc02b.html|Денисова|Марина Владимировна /Денисова/|10 JUL 1957||||
ppl/7/1/f35ece4055b55cb7e1317eabf17.html|Залетаева|Виорика Константиновна /Залетаева/|5 MAR 1990||||
ppl/9/c/f35ece4057b34a9498ec6f231c9.html|Ласточкина|Лидия Владимировна /Ласточкина/|29 MAR 1953||||
ppl/4/e/f35ece4058b6b103dfe6d81d6e4.html|Харя|Константин Павлович /Харя/|||||
ppl/0/8/f35ece4059e2daa574cb5f95980.html|Кусакин|Александр Петрович /Кусакин/|15 AUG 1935||16 FEB 2006||
ppl/4/3/f35ece4068d377cb2dc0b764c34.html|Бурдакова|Мария Максимовна /Бурдакова/|7 NOV 1997||||
ppl/3/9/f35ece406a136eb12ac73089e93.html|Горюнов|Владимир Алексеевич /Горюнов/|||||
ppl/4/2/f35ece406b31314445327b5d124.html|Бурдакова|Ольга Владимировна /Бурдакова/|23 NOV 1982||||
ppl/f/6/f35ece406c757ce09122cce06f.html|Тараненко|Галина Аркадьевна /Тараненко/|6 AUG 1958||||
ppl/9/e/f35ece406df5f0795e4b2018be9.html|Денисов|Евгений Петрович /Денисов/|25 MAY 1986||||
ppl/6/a/f35ece406f31157e7498eec56a6.html|Залетаева|Прасковья Николаевна /Залетаева/|1882||1943||
ppl/6/0/f35ece407ee2612c555790e5a06.html|Щербаков|Вячеслав Юрьевич /Щербаков/|8 DEC 1949||FEB 2011||
ppl/f/1/f35ece4080629d5daa4cfcf681f.html|Попков|Андрей Дмитриевич /Попков/|27 NOV 1921||27 MAR 1961||
ppl/5/6/f35ece408ef6768140cf6ba5465.html|Попкова|Татьяна Дмитриевна /Попкова/|||||
ppl/e/6/f35ece4090240af3a61f07b006e.html|Фетисенко|Владимир Владимирович /Фетисенко/|10 JUN 1956||||
ppl/f/4/f35ece4090c2c1eecb113cd4b4f.html|Терехов|Алексей Иванович /Терехов/|4 APR 1978||||
ppl/9/0/f35ece409edfdc24674f9a8709.html|Попкова|Анна Максимовна /Попкова/|||||
ppl/e/8/f35ece40a0124623495af7b98e.html|Зевакина|Мария Юрьевна /Зевакина/|9 FEB 1978||||
ppl/4/6/f35ece40a1a298a473bca3d6b64.html|Головин|Александр Михайлович /Головин/|18 SEP 1918||25 OCT 1995||
ppl/8/b/f35ece40a33574386b08eb79eb8.html|Бирючкова|Нонна Серафимовна /Бирючкова/|1 MAY 1937||20 DEC 2018||
ppl/3/5/f35ece40b227455e4b0bb1d8853.html|Попков|Егор Дмитриевич /Попков/|||||
ppl/f/5/f35ece40b365c8b4f3ec15d4a5f.html|Седов|Роман Александрович /Седов/|21 MAR 1982||||
ppl/c/a/f35ece40b464b2d5eb64d8a63ac.html|Терехов|Дмитрий Николаевич /Терехов/|ABT 9 JUN 1985||||
ppl/3/1/f35ece40c2e468a8d4619ed5613.html|Попкова|Нина Владимировна /Попкова/|||||
ppl/5/b/f35ece40c3d6245677d5f8fceb5.html|Пимахова|Наталья Вячеславовна /Пимахова/|3 DEC 1978||||
ppl/1/9/f35ece40c4e7f56b0554fffa691.html|Попков|Александр Николаевич /Попков/|||||
ppl/8/a/f35ece40c66598f0a6891b2bca8.html|Головина|Александра Кирилловна /Головина/|20 MAY 1920||26 JUL 1963||
ppl/c/5/f35ece40c87278cd9561058e75c.html|Седова|Татьяна Юрьевна /Седова/|7 MAR 1982||||
ppl/c/5/f35ece40c9f185a07075999e55c.html|Попков|Фёдор ? /Попков/|||||
ppl/3/0/f35ece40da16138fe3ec5d21403.html|Ласточкин|Виктор Павлович /Ласточкин/|28 MAY 1953||||
ppl/8/5/f35ece40dae78820ef5a7d00d58.html|Терехов|Иван Васильевич /Терехов/|27 OCT 1956||30 MAR 2003||
ppl/b/8/f35ece40dd25a2e113d5052a88b.html|Попков|Григорий ? /Попков/|||||
ppl/e/8/f35ece40de77a0591ca50ab228e.html|Чернушевич|Валентина Андреевна /Чернушевич/|1953||||
ppl/d/3/f35ece40e004683fca82fe2443d.html|Ласточкин|Олег Викторович /Ласточкин/|15 FEB 1978||||
ppl/7/0/f35ece40e0f4c83a8c8dda0ba07.html|Попков|Николай Николаевич /Попков/|3 SEP 1954||||
ppl/d/b/f35ece40f052ab5c49bf2d057bd.html|Попков|Павел ? /Попков/|||||
ppl/6/d/f35ece40f19188cc3813e2250d6.html|Ласточкин|Алексей Викторович /Ласточкин/|12 AUG 1976||||
ppl/f/a/f35ece40f2831616a265bbd0af.html|Вишневский|Серафим Иванович /Вишневский/|||||
ppl/d/8/f35ece40f3712369077fdf3998d.html|Тяпкина|Анна Дмитриевна /Тяпкина/|||||
ppl/5/b/f35ece40f4b73c76ffe2c5ccb5.html|Попков|Григорий Дмитриевич /Попков/|||AFT 1941||
ppl/6/1/f35ece40f625bfc1994cab4d916.html|Васильев|Василий Кириллович /Васильев/|1928||||
ppl/9/b/f35ece40f793cdb69987c4e4cb9.html|Попков|Николай Дмитриевич /Попков/|26 MAY 1928||||
ppl/b/8/f35ece4106b7c8f87f2ed6dce8b.html|Васильев|Кирилл Федорович /Васильев/|ABT 1891||1944||
ppl/6/a/f35ece4107e1097a8e68c6ca0a6.html|Кривицкая|Надежда ? /Кривицкая/|||||
ppl/0/7/f35ece410932725c10231a27d70.html|Попков|Иван ? /Попков/|||||
ppl/1/f/f35ece411806b74e3c5068d78f1.html|Чугунов|Александр Сергеевич /Чугунов/|26 APR 2005|Москва|||
ppl/d/1/f35ece4119d316815ff0773071d.html|Зюрина|Нина Андреевна /Зюрина/|||||
ppl/f/5/f35ece411b93f057c605e77d85f.html|Попков|Дмитрий Александрович /Попков/|||||
ppl/f/e/f35ece411d347789acd5941f2ef.html|Попков|Дмитрий Максимович /Попков/|||||
ppl/0/3/f35ece411e822d325e45daa1b30.html|Попкова|Мария Николаевна /Попкова/|4 APR 1987||||
ppl/5/5/f35ece411fc3ea04c661a920e55.html|Терехова|Юлия Николаевна /Терехова/|10 MAY 1989||||
ppl/1/0/f35ece412e8fb625e924925a01.html|Тараненко|Юрий Андреевич /Тараненко/|30 NOV 1952||||
ppl/4/7/f35ece412fd2ba4eaf58fe52974.html|Терехова|Зинаида /Терехова/|||||
ppl/e/e/f35ece413136854e8d20968eeee.html|Попков|Дмитрий Дмитриевич /Попков/|||||
ppl/9/a/f35ece41326615a2cc5410a4ea9.html|Попкова|Елена Николаевна /Попкова/|27 FEB 1979||||
ppl/1/4/f35ece4133b44054b4f26b3d241.html|Попков|? ? /Попков/|||||
ppl/4/e/f35ece4134942bc51fa487754e4.html|Попков|Владимир Андреевич /Попков/|||8 MAY 2010||
ppl/2/b/f35ece4144428004aaf85efd3b2.html|Попков|Николай Егорович /Попков/|||||
ppl/5/4/f35ece414585caf7fea12ced845.html|Фетисенко|Иван Владимирович /Фетисенко/|4 OCT 1980||||
ppl/1/2/f35ece414686ff8cad3229d9721.html|Залетаева|Софья Дмитриевна /Залетаева/|27 SEP 1913|Брянская область|6 OCT 2003||
ppl/3/e/f35ece41560eeb0f8fb35180e3.html|Фетисенко|Надежда Владимировна /Фетисенко/|17 FEB 1985||||
ppl/6/7/f35ece4156f37c37f36cf5b1976.html|Черепенина|Анна Кирилловна /Черепенина/|ABT 20 OCT 1926||10 JAN 1991||
ppl/5/2/f35ece41593b264769252ef325.html|Чугунов|Сергей /Чугунов/|||||
ppl/1/0/f35ece415a162e255ae80702601.html|Козлов|Игорь Игоревич /Козлов/|||||
ppl/b/f/f35ece415b07c3d753ae7d009fb.html|Васьков|Михаил Юрьевич /Васьков/|||||
ppl/0/6/f35ece415be55c7087aa5ea2160.html|Козлов|Николай Игоревич /Козлов/|||||
ppl/f/f/f35ece415cc213f978cea70fbff.html|Акишин|Митрофан /Акишин/|||||
ppl/d/2/f35ece415dc487de4c7fa5f1f2d.html|Чернушевич|Андрей Михайлович /Чернушевич/|10 MAY 1975||||
ppl/2/a/f35ece415f11fead7489b70bba2.html|Попкова|Ольга Александровна /Попкова/|||||
ppl/a/a/f35ece416054e9bd1e50aae92aa.html|Попкова|Анна Владимировна /Попкова/|9 OCT 1957||||
ppl/e/4/f35ece416de26aa40c45d1554e.html|Козлов|Тимофей Игоревич /Козлов/|||||
ppl/1/9/f35ece416eb7c6e145043682b91.html|Чернушевич|Михаил Григорьевич /Чернушевич/|||||
ppl/1/6/f35ece416fa7acb307ce4ecbd61.html|Кривицкий|Тимофей /Кривицкий/|||||
ppl/8/8/f35ece417084d7871a85e45fd88.html|Коренков|Дмитрий /Коренков/|||||
ppl/d/7/f35ece4189f38bac2da783e9c7d.html|Попкова|Александра Назаровна /Попкова/|1 MAY 1926||||
ppl/b/5/f35ece418b6105d266e12aec55b.html|Бирючков|Евгений /Бирючков/|||||
ppl/b/d/f35ece418c44f523a236143bdb.html|Попкова|Дарья Митрофановна /Попкова/|30 MAR 1894||25 SEP 1968||
ppl/9/5/f35ece418dc7484005ff4826759.html|Попкова|Татьяна Владимировна /Попкова/|1969||||
ppl/5/8/f35ece418eb651c2825832fd385.html|Козлов|Виктор /Козлов/|||||
ppl/c/3/f35ece418fa5afc61b4d0176e3c.html|Чернушевич|Татьяна Михайловна /Чернушевич/|||||
ppl/b/8/f35ece4190e6fe9a3824a4a58b.html|Хрулева|Клавдия Ивановна /Хрулева/|||||
ppl/8/6/f35ece41921c69aae0cb62ff68.html|Чернушевич|Владимир Михайлович /Чернушевич/|ABT 1989||||
ppl/c/d/f35ece419342f7741b24cd9d1dc.html|Коренкова|Анна Дмитриевна /Коренкова/|26 JAN 1914||1 MAY 1990||
ppl/9/1/f35ece41a36449fb1b345177c19.html|Васильева|Меланья Митрофановна /Васильева/|25 DEC 1896||4 AUG 1975||
ppl/7/e/f35ece41a5c7a14ea7e680c64e7.html|Бирючков|Михаил Евгеньевич /Бирючков/|12 SEP 1960||||
ppl/5/7/f35ece41b572b423ddc67ad8b75.html|Бирючков|Виктор Евгеньевич /Бирючков/|31 DEC 1956||13 AUG 2003||
ppl/e/2/f35ece41b7a29409ac29819a82e.html|Теселкин|Максим Максимович /Теселкин/|||||
ppl/8/b/f35ece41b8970f6e2093d7ffeb8.html|Грибушенков|Егор /Грибушенков/|||||
ppl/4/9/f35ece41b976975ecaec74bb994.html|Васьков|Юрий Романович /Васьков/|||||
ppl/0/f/f35ece41ba77f52a0bcf64d9f0.html|Зюрина|Ольга Николаевна /Зюрина/|||||
ppl/8/4/f35ece41bb96a6c1f2df43b8448.html|Акишин|Василий Митрофанович /Акишин/|||||
ppl/8/7/f35ece41caa6038039d51625078.html|Попкова|Аксинья Митрофановна /Попкова/|||||
ppl/5/9/f35ece41cbc5102cb1e43525095.html|Зюрин|Николай /Зюрин/|||||
ppl/c/8/f35ece41ccaaba15565fe5608c.html|Васькова|Людмила Романовна /Васькова/|||||
ppl/3/2/f35ece41cd71c9a4360f34be823.html|Бобкова|Ольга Ивановна /Бобкова/|||||
ppl/a/9/f35ece41cea15eef7315df9499a.html|Перфильев|Александр Петрович /Перфильев/|1909||1941||
ppl/2/e/f35ece41d0130aaa4ca13e189e2.html|Козлов|Игорь Викторович /Козлов/|||||
ppl/5/e/f35ece41d0f5810521b390b03e5.html|Кудрявцева|Варвара Егоровна /Кудрявцева/|||||
ppl/a/a/f35ece41df1163cab86ae38b2aa.html|Бобков|Иван /Бобков/|||||
ppl/a/a/f35ece41dff4d2f0b14986f08aa.html|Васьков|Роман Юрьевич /Васьков/|||||
ppl/0/0/f35ece41e0d71cd4ff39d9b6f00.html|Грибушенков|Андрей Егорович /Грибушенков/|||||
ppl/9/f/f35ece41e1e93c880cdb0a73f9.html|Коренкова|Прасковья Митрофановна /Коренкова/|||||
ppl/4/4/f35ece41f054ef6efd94f279d44.html|Косоногов|Митрофан /Косоногов/|||||
ppl/5/d/f35ece41f143f5e8bac187ca9d5.html|Грибушенков|Иван Андреевич /Грибушенков/|||||
ppl/0/2/f35ece41f2712a834e75f698420.html|Бобков|Николай Иванович /Бобков/|||||
ppl/5/3/f35ece4200738bd369d3b3aef35.html|Бобкова|Мария Ивановна /Бобкова/|||||
ppl/e/b/f35ece4201937f9fd988cd408be.html|Грибушенкова|Ольга Митрофановна /Грибушенкова/|||||
ppl/a/d/f35ece4202b35ce26b4cf60fbda.html|Козлов|Павел Игоревич /Козлов/|||||
ppl/f/c/f35ece420372f4b188665a71cf.html|Теселкин|Виктор Максимович /Теселкин/|||||
ppl/7/c/f35ece421321d3a2ab51f15fac7.html|Теселкин|Евгений Викторович /Теселкин/|||||
ppl/2/f/f35ece4214219ed80380d9fabf2.html|Акишин|Михаил Митрофанович /Акишин/|||||
ppl/3/5/f35ece421594fe54f4f68569a53.html|Перфильев|Николай Александрович /Перфильев/|1934||||
ppl/2/7/f35ece42173411457e1d95f9c72.html|Грибушенкова|Любовь /Грибушенкова/|||||
ppl/1/0/f35ece4218313dcf79fbd38a601.html|Зюрин|Григорий Николаевич /Зюрин/|||||
ppl/9/5/f35ece42195ef86aae09e53059.html|Васьков|Роман /Васьков/|||||
ppl/b/c/f35ece421a28b9dee26dfad9cb.html|Козлова|Тамара Максимовна /Козлова/|||||
ppl/a/5/f35ece422a51fbf70db9caa325a.html|Терехова|Елена Анатольевна /Терехова/|ABT 11 FEB 1968||||
ppl/c/0/f35ece422bb266326d4c80eec0c.html|Хрулев|Борис Александрович /Хрулев/|14 JAN 1932||||
ppl/e/a/f35ece422d07e31c9d1543b09ae.html|Пимахов|Александр Георгиевич /Пимахов/|28 DEC 1976||||
ppl/c/a/f35ece423bc19fce24f904ad8ac.html|Хрулев|Александр /Хрулев/|||||
ppl/8/2/f35ece423cc11cbc1708da10128.html|Лапкина|Нина Александровна /Лапкина/|||||
ppl/a/6/f35ece423de5da670e7c33e406a.html|Гимадеева|Карина Маратовна /Гимадеева/|||||
ppl/5/4/f35ece423ed659904a701a9a945.html|Буянов|Александр Васильевич /Буянов/|18 MAY 1966||||
ppl/9/6/f35ece423ff1b18741d020bbf69.html|Зевакина|Анастасия Алексеевна /Зевакина/|3 JUL 2004||||
ppl/9/8/f35ece4240e7469ec5198414789.html|Тяпкин|Гаврила ? /Тяпкин/|||||
ppl/f/2/f35ece4242575d304eb2f8d732f.html|Пимахова|Анастасия Александровна /Пимахова/|10 APR 2003||||
ppl/a/b/f35ece42434201cd1ba89e41bba.html|Гимадеев|Марат /Гимадеев/|1965||||
ppl/c/0/f35ece42516740ff084853cce0c.html|Буянов|Василий Васильевич /Буянов/|6 MAR 1942||||
ppl/e/4/f35ece425212e28ec27d827324e.html|Лаптева|Наталья Михайловна /Лаптева/|||||
ppl/4/6/f35ece425334e177f027f6d5a64.html|Сафонов|Александр /Сафонов/|||||
ppl/d/9/f35ece425435a98ae6891cfe79d.html|Тяпкин|? ? /Тяпкин/|||||
ppl/8/9/f35ece42551794421570a609f98.html|Зевакин|Алексей Владимирович /Зевакин/|25 JUL 1973||||
ppl/1/c/f35ece4255f32ac00cee01223c1.html|Хрулев|Владимир Борисович /Хрулев/|||||
ppl/7/c/f35ece4256e30d80d67d9e711c7.html|Лаптев|Юрий Михайлович /Лаптев/|||||
ppl/9/2/f35ece426473c88c8518e317a29.html|Буянова|Татьяна Александровна /Буянова/|22 JUN 1941||||
ppl/3/b/f35ece4265a626dee5f7be900b3.html|Сафонова|Римма Ивановна /Сафонова/|||||
ppl/6/4/f35ece426696993db06c54e5546.html|Лаптев|Михаил /Лаптев/|||||
ppl/f/7/f35ece4267646488c56d7e0617f.html|Шешко|Владимир /Шешко/|||||
ppl/2/3/f35ece4268679a67ddc28180532.html|Зевакин|Иван Алексеевич /Зевакин/|18 JUN 2010||||
ppl/e/5/f35ece4269471efeb98997e5e5e.html|Седова|Анжелика Романовна /Седова/|23 JUN 2011||||
ppl/c/e/f35ece426a32257205a5d3779ec.html|Терехова|Софья Алексеевна /Терехова/|17 MAR 2008||||
ppl/9/1/f35f445c68f6c6b945a345d2319.html|Шитьков|Михаил Тимофеевич /Шитьков/|||||
ppl/5/4/f35f44f6b7048f91426d76cd245.html|Шитькова|Евгения Никитична /Шитькова/|||||
ppl/8/e/f35f458e250382d7977140483e8.html|Севбянова|Маися Османовна /Севбянова/|||||
ppl/7/9/f398ae92f09226583f0e90fa797.html|Севбянов|Мустафа /Севбянов/|||1941||
ppl/4/5/f398aed8b013f5cdc56e1361c54.html|Севбянова|Зайда /Севбянова/|||||
ppl/7/4/f39bed7942f6c647389b8a1ec47.html|Шамардинов|Усман Шаймардянович /Шамардинов/|||||
ppl/c/7/f39bf06773a683bb545e484217c.html|Шамардинова|Рахиля Исмаиловна /Шамардинова/|||||
ppl/2/8/f39bf41bcbb35337a77e3a6f082.html|Шамардинов|Муххарям Османович /Шамардинов/|||||
ppl/9/9/f39bf5e4536137da3b798ec4c99.html|Севбянова|Хасяня Османовна /Севбянова/|||||
ppl/9/e/f39bf74ad9616ce5b113136ee9.html|Кудинова|Валия Османовна /Кудинова/|||||
ppl/2/8/f39bf8df6c75115494aaf4b3182.html|Шамардинов|Рапек Османович /Шамардинов/|||||
ppl/4/c/f39c1090d8153ef450b4c782fc4.html|Севбянов|Вафа /Севбянов/|||||
ppl/0/4/f39c10dcf924394b65605e5c240.html|Севбянов|Али /Севбянов/|||||
ppl/2/f/f39c110125f228c7d76198e50f2.html|Севбянов|Бари /Севбянов/|||||
ppl/0/3/f39c112c88227d4cf5e11d45730.html|Севбянов|Гаяр /Севбянов/|||||
ppl/e/a/f39c3e5a94d51ce8221f71008ae.html|Шамардинова|Найля /Шамардинова/|||||
ppl/f/d/f39c3edd77c472c812331109bdf.html|Бедрединова|Альфия /Бедрединова/|||||
ppl/2/5/f39c3f61b5b3b4eee7709dac052.html|Исмаилова|Гюзаль /Исмаилова/|||||
ppl/a/0/f39c4079d2d12ef4f22111040a.html|Кудинов|Алексей Иванович /Кудинов/|||||
ppl/0/2/f39c40dd05c2b30c3075a90d120.html|Кудинов|Руслан Алексеевич /Кудинов/|||||
ppl/2/5/f39c41d4e2057b5f174a1e56252.html|Шамардинова|Галина /Шамардинова/|||||
ppl/f/4/f39c42276e22f5c7e2a74b8344f.html|Шамардинов|Андрей /Шамардинов/|||||
ppl/8/1/f39c4335e9f4126a2495bc30818.html|Жемалетдинова|Рабия /Жемалетдинова/|||||
ppl/4/b/f39c43da3d67691d515431a1db4.html|Севбянов|Мансур /Севбянов/|||||
ppl/4/2/f39c441d2ed2bd6ce9f27c5f24.html|Севбянова|Роза /Севбянова/|||||
ppl/6/c/f39c456e001206c252cf8d3dbc6.html|Жемалетдинов|Анвар /Жемалетдинов/|||||
ppl/b/7/f39c45ab667586c24eaae81727b.html|Жемалетдинов|Рафик /Жемалетдинов/|||||
ppl/9/3/f39c464490c2ee9ac3eb65a139.html|Севбянова|Сания /Севбянова/|||||
ppl/6/8/f39c46ab0d846634b5a0b83c686.html|Салехдинова|Афия /Салехдинова/|||||
ppl/1/b/f39c47337974359c3d8fd7e04b1.html|Севбянова|Галия /Севбянова/|||||
ppl/1/6/f39c59da68831c4d874dc349961.html|Севбянова|Рамиля /Севбянова/|||||
ppl/2/6/f39c5a066181b66cec1c50b2d62.html||Ильмира //|||||
ppl/f/3/f39c5aeddff4bf96750e576e03f.html|Севбянов|Ильдар /Севбянов/|||||
ppl/e/d/f39c5b0e5271d632b604c89d0de.html|Севбянов|Ильгия /Севбянов/|||||
ppl/b/a/f39c5b37dc21a9496ced7faeeab.html|Севбянова|Ильнара /Севбянова/|||||
ppl/c/2/f39c5eb0bc55b431bb7bd6b842c.html|Севбянова|Татьяна /Севбянова/|||||
ppl/7/4/f39c5ee6fd3296fd98f6f877a47.html|Севбянова|Ирина /Севбянова/|||||
ppl/7/c/f39c5f2e87db4792f0b5d2e3c7.html|Севбянова|Елена /Севбянова/|||||
ppl/0/8/f39c612d318490b6c4bcd25ba80.html|Бедрединов|Ренат /Бедрединов/|||||
ppl/4/7/f39c616f63614394d7ab69a3474.html|Бедрединова|Зульфия /Бедрединова/|||||
ppl/e/8/f39c61df63a370e03b1ddc93c8e.html|Бедрединов|Шамиль /Бедрединов/|||||
ppl/b/a/f39c631b70362fdba85fb221bab.html|Исмаилов|Ирфан /Исмаилов/|||||
ppl/a/3/f39c634ac2341ef83974eebd13a.html|Исмаилова|Эльвира /Исмаилова/|||||
ppl/1/5/f39c657d034674ece8bcf8dd651.html|Салехдинов|Наиль /Салехдинов/|||||
ppl/7/2/f39c65a4e9466437feff8e8cf27.html|Салехдинов|Ринат /Салехдинов/|||||
ppl/b/e/f39c65d7feb2f573ce4e0789aeb.html|Салехдинов|Рушан /Салехдинов/|||||
ppl/d/a/f39c67a35182c0bd8bee1b66aad.html|Шитькова|Василиса Артёмовна /Шитькова/|||||
ppl/1/b/f39c67d3a8c5f9a9bd8a5866db1.html|Шитьков|Тимофей Наумович /Шитьков/|||||
ppl/f/c/f3a20f464456396a83cb53940cf.html|Гостюжев|Анатолий /Гостюжев/|||||
ppl/7/a/f3a234e6efb805901f02d7b8a7.html|Гостюжев| /Гостюжев/|||||
ppl/d/1/f3a23f1c4745530a47e29f121d.html|Гуреев|Дмитрий Петрович /Гуреев/|1901|Ильинка, Ильинское сельское поселение, Скопинский район, Рязанская область|2 FEB 1942||
ppl/9/6/f3a24067e276aa81cb4a2f92f69.html|Гуреева|Ольги Ивановна /Гуреева/|1903|Ильинка, Ильинское сельское поселение, Скопинский район, Рязанская область|1977||
ppl/9/a/f3a241618d840e0d03d4a4c9a9.html|Яковлев|Андрей /Яковлев/|||||
ppl/f/5/f3a241ab35c4ee0344f4213c45f.html|Пылёва|Вера /Пылёва/|||||
ppl/e/7/f3a2421037267b281b74f5dbe7e.html|Синицин|Александр /Синицин/|||||
ppl/4/c/f3a2645deeb26a4ab7a92651bc4.html|Севбянов| /Севбянов/|||||
ppl/d/f/f3a26481b4544275942305f2afd.html|Севбянова| /Севбянова/|||||
ppl/e/9/f3a264e19a5135fce844b30cb9e.html|Севбянов|Якуб /Севбянов/|||||
ppl/3/5/f3a267efaeb4ae9fca72ef5d53.html|Севбянов|Сафа /Севбянов/|||||
ppl/a/7/f3a268abb776915e26bcf511e7a.html|Севбянова|Надия /Севбянова/|||||
ppl/2/6/f3a268e84a27f8bda8573715f62.html|Севбянов|Зинур /Севбянов/|||||
ppl/b/e/f3a26b590434fa27f270f4835eb.html||Никита //|||||
ppl/9/9/f3a26c754079092d41c1327899.html||Маруся //|||||
ppl/8/d/f3a26ca3bd415374312708f52d8.html||Иван //|||||
ppl/0/a/f3a26e12f0445aa94c9e63a0da0.html|Гостюжев|Сергей /Гостюжев/|||||
